{
 "SoundBanksInfo": {
  "Platform": "Windows",
  "BasePlatform": "Windows",
  "SchemaVersion": "12",
  "SoundbankVersion": "135",
  "RootPaths": {
   "ProjectRoot": "C:\\Users\\ELE5d5a8eb8d218d\\Documents\\ENJMIN\\La_Brume\\GIT\\lavrume\\lavrume_WwiseProject\\",
   "SourceFilesRoot": "C:\\Users\\ELE5d5a8eb8d218d\\Documents\\ENJMIN\\La_Brume\\GIT\\lavrume\\lavrume_WwiseProject\\.cache\\Windows\\",
   "SoundBanksRoot": "C:\\Users\\ELE5d5a8eb8d218d\\Documents\\ENJMIN\\La_Brume\\GIT\\lavrume\\lavrume_WwiseProject\\GeneratedSoundBanks\\Windows\\",
   "ExternalSourcesInputFile": "",
   "ExternalSourcesOutputRoot": "C:\\Users\\ELE5d5a8eb8d218d\\Documents\\ENJMIN\\La_Brume\\GIT\\lavrume\\lavrume_WwiseProject\\GeneratedSoundBanks\\Windows"
  },
  "SoundBanks": [
   {
    "Id": "2814693645",
    "GUID": "{A7C4D10D-D10D-110D-0D0D-0D0D0D0D0D0D}",
    "Language": "SFX",
    "Hash": "4071732370",
    "ObjectPath": "\\SoundBanks\\Default Work Unit\\SB_5417E2015F894757B798AAD067836101",
    "ShortName": "SB_5417E2015F894757B798AAD067836101",
    "Path": "SB_5417E2015F894757B798AAD067836101.bnk",
    "IncludedEvents": [
     {
      "Id": "421439065",
      "Name": "Mx_Test",
      "ObjectPath": "\\Events\\LaBrume\\LB_SFX\\Test\\Mx_Test",
      "GUID": "{5417E201-5F89-4757-B798-AAD067836101}",
      "DurationType": "OneShot",
      "DurationMin": "4.780000",
      "DurationMax": "4.780000",
      "ExcludedMemoryFiles": [
       {
        "Id": "818302238",
        "Language": "SFX",
        "ShortName": "Mx_Test.wav",
        "Path": "SFX\\Mx_Test_10C4C929.wem"
       }
      ]
     }
    ]
   }
  ]
 }
}